  ____ _____ __  __ _____   ____                      _
 |  _ \_   _|  \/  |  ___| |  _ \  ___  ___  ___   __| | ___ _ __
 | | | || | | |\/| | |_    | | | |/ _ \/ __|/ _ \ / _  |/ _ \  __|
 | |_| || | | |  | |  _|   | |_| |  __/ (__| (_) | (_| |  __/ |   
 |____/ |_| |_|  |_|_|     |____/ \___|\___|\___/ \__._|\___|_|
                                                                  
by Ihor Yuvchenko 2018
